<?xml version="1.0" encoding="UTF-8" standalone="no"?>
<!-- Created with Inkscape (http://www.inkscape.org/) -->

<svg
   width="275.06976"
   height="275.07419"
   viewBox="0 0 72.778877 72.780047"
   version="1.1"
   id="svg1"
   sodipodi:docname="repo.svg"
   inkscape:version="1.3.2 (091e20ef0f, 2023-11-25, custom)"
   inkscape:export-filename="repo.png"
   inkscape:export-xdpi="67.007378"
   inkscape:export-ydpi="67.007378"
   xmlns:inkscape="http://www.inkscape.org/namespaces/inkscape"
   xmlns:sodipodi="http://sodipodi.sourceforge.net/DTD/sodipodi-0.dtd"
   xmlns="http://www.w3.org/2000/svg"
   xmlns:svg="http://www.w3.org/2000/svg">
  <sodipodi:namedview
     id="namedview1"
     pagecolor="#505050"
     bordercolor="#eeeeee"
     borderopacity="1"
     inkscape:showpageshadow="0"
     inkscape:pageopacity="0"
     inkscape:pagecheckerboard="0"
     inkscape:deskcolor="#d1d1d1"
     inkscape:document-units="mm"
     inkscape:zoom="2.553386"
     inkscape:cx="96.34266"
     inkscape:cy="160.76692"
     inkscape:window-width="2560"
     inkscape:window-height="1419"
     inkscape:window-x="0"
     inkscape:window-y="0"
     inkscape:window-maximized="0"
     inkscape:current-layer="g6"
     showguides="true">
    <sodipodi:guide
       position="36.386193,129.81237"
       orientation="232.76706,0"
       id="guide43"
       inkscape:locked="false" />
    <sodipodi:guide
       position="67.123842,99.074726"
       orientation="0,-232.76709"
       id="guide49"
       inkscape:locked="false" />
  </sodipodi:namedview>
  <defs
     id="defs1" />
  <g
     inkscape:label="Layer 1"
     inkscape:groupmode="layer"
     id="layer1"
     transform="translate(-31.347137,-31.341387)">
    <rect
       style="opacity:1;fill:#051123;fill-opacity:1;stroke-width:0.222"
       id="rect17"
       width="72.772385"
       height="72.772385"
       x="31.347137"
       y="31.347137" />
    <path
       id="path15"
       style="opacity:0;fill:#051123;fill-opacity:1;stroke-width:0.222"
       d="m 66.207031,31.373047 c -9.332189,0.400315 -18.45551,4.510493 -24.864671,11.31732 -6.844449,7.177711 -10.551873,17.235947 -9.927214,27.140855 0.544758,9.919714 5.355189,19.528135 13.030659,25.849551 7.565763,6.336117 17.778199,9.403077 27.579867,8.173757 9.44303,-1.09732 18.382238,-6.052457 24.235731,-13.557255 C 102.27274,82.76065 105.08069,72.767733 103.83624,63.203159 102.72431,53.838049 97.739114,45.030175 90.327242,39.208453 83.569878,33.791269 74.85166,31.009201 66.207031,31.373047 Z" />
    <g
       id="g6"
       transform="matrix(1.7465516,0,0,1.7465516,-48.152766,-50.566429)">
      <path
         id="path2"
         style="font-weight:600;font-size:42.3333px;line-height:1.25;font-family:'Source Code Pro';-inkscape-font-specification:'Source Code Pro, Semi-Bold';letter-spacing:0px;word-spacing:0px;fill:#17e6d0;fill-opacity:1;stroke-width:0.255217"
         inkscape:label="O"
         d="m 80.954084,54.175957 c -4.972953,1.162207 -8.604692,5.873062 -8.604692,13.434884 0,7.685242 3.615468,12.471921 8.571258,13.667147 a 19.930332,19.930332 0 0 0 3.309976,-4.807409 c -0.256426,0.04364 -0.515988,0.07249 -0.780524,0.07249 -2.708891,0 -5.332294,-2.210912 -5.332294,-8.932228 0,-6.413671 2.415081,-8.384265 5.332294,-8.384265 0.328216,0 0.647846,0.02811 0.959529,0.079 a 19.930332,19.930332 0 0 0 -3.455547,-5.129619 z" />
      <path
         id="path1"
         style="font-weight:600;font-size:42.3333px;line-height:1.25;font-family:'Source Code Pro';-inkscape-font-specification:'Source Code Pro, Semi-Bold';letter-spacing:0px;word-spacing:0px;fill:#17e6d0;fill-opacity:1;stroke-width:0.264583"
         inkscape:label="T"
         d="M 55.554652 53.89052 C 56.282704 54.143171 56.985687 54.462598 57.644726 54.874607 C 59.328107 55.835943 60.476957 57.444835 61.078082 59.250923 L 63.663751 59.250923 L 63.663751 87.471664 A 19.930332 19.930332 0 0 0 66.351497 87.663688 A 19.930332 19.930332 0 0 0 69.180376 87.461604 L 69.180376 59.250923 L 73.277088 59.250923 C 74.519431 56.909945 76.496485 54.941069 78.909105 53.89052 L 55.554652 53.89052 z " />
      <path
         id="text1"
         style="font-weight:600;font-size:42.3333px;line-height:1.25;font-family:'Source Code Pro';-inkscape-font-specification:'Source Code Pro, Semi-Bold';letter-spacing:0px;word-spacing:0px;fill:#17e6d0;fill-opacity:1;stroke-width:0.264583"
         inkscape:label="P"
         d="m 51.94779,54.022989 a 19.930332,19.930332 0 0 0 -3.499337,5.016297 h 0.672529 c 3.342527,0 5.489996,0.823687 5.489996,3.402289 0,2.724458 -1.938075,3.825984 -5.489996,3.825984 h -2.595137 a 19.930332,19.930332 0 0 0 -0.10474,1.465775 19.930332,19.930332 0 0 0 0.452691,3.986054 h 2.628275 c 7.555607,0 11.146867,-3.230132 11.146867,-9.277813 0,-5.543509 -3.783333,-7.877126 -8.701148,-8.418586 z" />
    </g>
  </g>
</svg>
